{
  "getChildHealthRecords" : {
    "transaction" : "getChildHealthRecords",
    "sampleCount" : 42,
    "errorCount" : 10,
    "errorPct" : 23.809525,
    "meanResTime" : 3875.857142857143,
    "medianResTime" : 2178.0,
    "minResTime" : 43.0,
    "maxResTime" : 15569.0,
    "pct1ResTime" : 9011.3,
    "pct2ResTime" : 9037.7,
    "pct3ResTime" : 15569.0,
    "throughput" : 0.1619520621895919,
    "receivedKBytesPerSec" : 0.07980868689653577,
    "sentKBytesPerSec" : 0.3908042438188296
  },
  "getClassAttendanceSummaries" : {
    "transaction" : "getClassAttendanceSummaries",
    "sampleCount" : 47,
    "errorCount" : 6,
    "errorPct" : 12.765958,
    "meanResTime" : 2577.6595744680853,
    "medianResTime" : 401.0,
    "minResTime" : 7.0,
    "maxResTime" : 18415.0,
    "pct1ResTime" : 9003.6,
    "pct2ResTime" : 9033.2,
    "pct3ResTime" : 18415.0,
    "throughput" : 0.15925509277456254,
    "receivedKBytesPerSec" : 0.09344258155046692,
    "sentKBytesPerSec" : 0.169519581176048
  },
  "getChildStatementOfAccount" : {
    "transaction" : "getChildStatementOfAccount",
    "sampleCount" : 49,
    "errorCount" : 12,
    "errorPct" : 24.489796,
    "meanResTime" : 37111.44897959184,
    "medianResTime" : 36783.0,
    "minResTime" : 2796.0,
    "maxResTime" : 70947.0,
    "pct1ResTime" : 59867.0,
    "pct2ResTime" : 65857.0,
    "pct3ResTime" : 70947.0,
    "throughput" : 0.15701253216353656,
    "receivedKBytesPerSec" : 0.18286001932215448,
    "sentKBytesPerSec" : 0.25591202752045167
  },
  "childByID" : {
    "transaction" : "childByID",
    "sampleCount" : 46,
    "errorCount" : 9,
    "errorPct" : 19.565218,
    "meanResTime" : 8139.847826086956,
    "medianResTime" : 9003.0,
    "minResTime" : 406.0,
    "maxResTime" : 23579.0,
    "pct1ResTime" : 19054.100000000002,
    "pct2ResTime" : 20663.35,
    "pct3ResTime" : 23579.0,
    "throughput" : 0.16601403901329917,
    "receivedKBytesPerSec" : 0.3511832729577567,
    "sentKBytesPerSec" : 2.113436535720086
  },
  "findClassActivities" : {
    "transaction" : "findClassActivities",
    "sampleCount" : 53,
    "errorCount" : 10,
    "errorPct" : 18.867924,
    "meanResTime" : 23091.018867924526,
    "medianResTime" : 22285.0,
    "minResTime" : 9002.0,
    "maxResTime" : 46712.0,
    "pct1ResTime" : 39300.200000000004,
    "pct2ResTime" : 44007.7,
    "pct3ResTime" : 46712.0,
    "throughput" : 0.17307704867710355,
    "receivedKBytesPerSec" : 0.15131485490918353,
    "sentKBytesPerSec" : 0.5672329837503511
  },
  "Total" : {
    "transaction" : "Total",
    "sampleCount" : 431,
    "errorCount" : 80,
    "errorPct" : 18.561485,
    "meanResTime" : 13012.696055684442,
    "medianResTime" : 9003.0,
    "minResTime" : 7.0,
    "maxResTime" : 70947.0,
    "pct1ResTime" : 33198.40000000001,
    "pct2ResTime" : 42339.999999999956,
    "pct3ResTime" : 62389.120000000024,
    "throughput" : 1.3718512671322263,
    "receivedKBytesPerSec" : 1.7720916345321385,
    "sentKBytesPerSec" : 4.835456800013687
  },
  "getAllClassInfo" : {
    "transaction" : "getAllClassInfo",
    "sampleCount" : 50,
    "errorCount" : 7,
    "errorPct" : 14.0,
    "meanResTime" : 15852.38,
    "medianResTime" : 17652.5,
    "minResTime" : 68.0,
    "maxResTime" : 35152.0,
    "pct1ResTime" : 28240.399999999998,
    "pct2ResTime" : 32625.299999999992,
    "pct3ResTime" : 35152.0,
    "throughput" : 0.16322852973534124,
    "receivedKBytesPerSec" : 0.39624044398976227,
    "sentKBytesPerSec" : 0.4190701217521603
  },
  "getChildrenToAssignToClass" : {
    "transaction" : "getChildrenToAssignToClass",
    "sampleCount" : 50,
    "errorCount" : 14,
    "errorPct" : 28.0,
    "meanResTime" : 14793.560000000001,
    "medianResTime" : 11641.0,
    "minResTime" : 2027.0,
    "maxResTime" : 40472.0,
    "pct1ResTime" : 28934.599999999995,
    "pct2ResTime" : 38027.299999999996,
    "pct3ResTime" : 40472.0,
    "throughput" : 0.1611058304200029,
    "receivedKBytesPerSec" : 0.4240922189911553,
    "sentKBytesPerSec" : 0.6404900738670232
  },
  "bankAccountsByFkChild" : {
    "transaction" : "bankAccountsByFkChild",
    "sampleCount" : 46,
    "errorCount" : 7,
    "errorPct" : 15.217391,
    "meanResTime" : 2573.260869565217,
    "medianResTime" : 1449.5,
    "minResTime" : 18.0,
    "maxResTime" : 9031.0,
    "pct1ResTime" : 9003.3,
    "pct2ResTime" : 9018.3,
    "pct3ResTime" : 9031.0,
    "throughput" : 0.18347233356865653,
    "receivedKBytesPerSec" : 0.10615563389691249,
    "sentKBytesPerSec" : 0.23525309958559185
  },
  "getChildrenData" : {
    "transaction" : "getChildrenData",
    "sampleCount" : 48,
    "errorCount" : 5,
    "errorPct" : 10.416667,
    "meanResTime" : 5357.312499999999,
    "medianResTime" : 3520.5,
    "minResTime" : 1530.0,
    "maxResTime" : 17155.0,
    "pct1ResTime" : 10145.300000000005,
    "pct2ResTime" : 14335.15,
    "pct3ResTime" : 17155.0,
    "throughput" : 0.16523065166280554,
    "receivedKBytesPerSec" : 0.09690223724023504,
    "sentKBytesPerSec" : 0.49052849712395397
  }
}